<?xml version="1.0" encoding="UTF-8" standalone="no"?>
<!-- Created with Inkscape (http://www.inkscape.org/) -->

<svg
   width="64.0px"
   height="64.0px"
   viewBox="0 0 64.0 64.0"
   version="1.1"
   id="SVGRoot"
   xmlns="http://www.w3.org/2000/svg"
   xmlns:svg="http://www.w3.org/2000/svg">
  <defs
     id="defs36259" />
  <g
     id="layer1"
     style="display:inline">
    <path
       style="display:inline;fill:#e14ca8;fill-opacity:1;stroke:none;stroke-width:0.377953;stroke-linecap:butt;stroke-linejoin:miter;stroke-miterlimit:4;stroke-dasharray:none;stroke-opacity:1"
       d="m 39.19194,38.221826 c 0,0 -4,-2 -4,-2 3,-6 5.9998,-11.9996 7.66647,-15.33294 1.66667,-3.33334 1.999997,-3.999994 2.500604,-4.333527 0.500606,-0.333533 1.167256,-0.333533 1.667261,-0.333533 0.500005,0 0.833335,0 1.33334,0 0.500005,0 1.166655,0 1.850935,0.176875 0.68428,0.176875 1.384743,0.529404 2.08642,0.882544 0,0 -13.10503,20.940581 -13.10503,20.940581 z"
       id="path47371-9" />
    <path
       style="display:inline;fill:#e14ca8;fill-opacity:1;stroke:none;stroke-width:0.377953;stroke-linecap:butt;stroke-linejoin:miter;stroke-miterlimit:4;stroke-dasharray:none;stroke-opacity:1"
       d="m 30.19194,26.221826 c 0,0 -4,-2 -4,-2 1,-2 1.9998,-3.9996 2.66647,-5.33294 0.66667,-1.33334 0.999997,-1.999994 1.500604,-2.333527 0.500606,-0.333533 1.167256,-0.333533 1.667261,-0.333533 0.500005,0 0.833335,0 1.33334,0 0.500005,0 1.166655,0 1.833494,0.168264 0.66684,0.168263 1.332418,0.503566 1.999211,0.839481 0,0 -7.00038,8.992255 -7.00038,8.992255 z"
       id="path46703-1" />
    <path
       style="display:inline;fill:#00d9b1;fill-opacity:1;stroke:none;stroke-width:0.377953;stroke-linecap:butt;stroke-linejoin:miter;stroke-miterlimit:4;stroke-dasharray:none;stroke-opacity:1"
       d="m 6.19194,24.221826 c 1,-2 1.9998,-3.9996 2.66647,-5.33294 0.66667,-1.33334 0.9999972,-1.999994 1.500704,-2.166557 0.500706,-0.166563 1.167357,0.166762 4.500751,1.83346 3.333395,1.666697 9.332075,4.666037 15.332075,7.666037 1.333333,-2.666667 2.666467,-5.332934 3.499804,-6.999607 0.833336,-1.666673 1.166663,-2.333327 1.66737,-2.49989 0.500706,-0.166563 1.167357,0.166762 2.500711,0.83344 1.333355,0.666677 3.332115,1.666057 5.332115,2.666057 0,0 -8,16 -8,16 0,0 -29,-12 -29,-12 z"
       id="path45177-2" />
    <path
       style="display:inline;fill:#f6c400;fill-opacity:1;stroke:none;stroke-width:0.377953;stroke-linecap:butt;stroke-linejoin:miter;stroke-miterlimit:4;stroke-dasharray:none;stroke-opacity:1"
       d="m 1.692442,34.055658 c 0.1673672,0.500103 0.8340368,0.833437 7.8341674,4.333503 7.0001306,3.500065 20.3331996,10.1666 27.3332056,13.666602 7.000005,3.500003 7.666656,3.833328 8.16596,3.666556 0.499305,-0.166773 0.832632,-0.833427 3.499349,-6.16686 2.666716,-5.333433 7.666616,-15.333233 10.333286,-20.666573 2.66667,-5.33334 2.999997,-5.999994 2.834024,-6.499897 -0.165974,-0.499903 -0.832625,-0.833228 -2.499319,-1.666576 -1.666695,-0.833347 -4.333306,-2.166652 -5.99998,-2.99999 -1.666675,-0.833337 -2.333326,-1.166662 -2.83403,-1.00009 -0.500705,0.166573 -0.834032,0.833227 -2.667399,4.49996 -1.833366,3.666733 -5.166433,10.332866 -8.499766,16.999533 -10,-5 -19.9988,-9.9994 -25.33214,-12.66607 C 8.52646,22.889086 7.8598092,22.555761 7.3591046,22.722333 6.8584,22.888906 6.5250748,23.555556 5.6917274,25.222251 4.85838,26.888946 3.5250748,29.555556 2.6917374,31.222231 1.8584,32.888906 1.5250748,33.555556 1.692442,34.055658 Z"
       id="path44847-7" />
  </g>
</svg>
